\begin{thebibliography}{1}

\bibitem{helffer2013spectral}
{\sc B.~Helffer}, {\em Spectral Theory and its Applications}, Cambridge Studies
  in Advanced Mathematics, Cambridge University Press, 2013.

\bibitem{hislop2012introduction}
{\sc P.~Hislop and I.~Sigal}, {\em Introduction to Spectral Theory: With
  Applications to Schr{\"o}dinger Operators}, Applied Mathematical Sciences,
  Springer New York, 1996.

\bibitem{lax2002functional}
{\sc P.~Lax}, {\em Functional analysis}, Pure and applied mathematics, Wiley,
  2002.

\end{thebibliography}
